<svg width="16" height="16" viewBox="0 0 16 16" fill="none" xmlns="http://www.w3.org/2000/svg">
<g id="&#196;&#176;cons/check">
<path id="Vector" d="M13.6 3.6001L5.99995 11.2001L1.59995 6.8001L0.699951 7.7001L5.09995 12.1001L5.99995 13.0001L14.5 4.5001L13.6 3.6001Z" fill="#0E89E6"/>
</g>
</svg>
